^C:\USERS\RO_AD\DESKTOP\EXEMPLEMOSTENIRE\ANIMALE.CPP
/c /ZI /JMC /nologo /W3 /WX- /diagnostics:column /sdl /Od /Oy- /D _MBCS /Gm- /EHsc /RTC1 /MDd /GS /fp:precise /permissive- /Zc:wchar_t /Zc:forScope /Zc:inline /Fo"DEBUG\\" /Fd"DEBUG\VC142.PDB" /Gd /TP /analyze- /FC C:\USERS\RO_AD\DESKTOP\EXEMPLEMOSTENIRE\ANIMALE.CPP
^C:\USERS\RO_AD\DESKTOP\EXEMPLEMOSTENIRE\VEHICULE.CPP
/c /ZI /JMC /nologo /W3 /WX- /diagnostics:column /sdl /Od /Oy- /D _MBCS /Gm- /EHsc /RTC1 /MDd /GS /fp:precise /permissive- /Zc:wchar_t /Zc:forScope /Zc:inline /Fo"DEBUG\\" /Fd"DEBUG\VC142.PDB" /Gd /TP /analyze- /FC C:\USERS\RO_AD\DESKTOP\EXEMPLEMOSTENIRE\VEHICULE.CPP
^C:\USERS\RO_AD\DESKTOP\EXEMPLEMOSTENIRE\SOURCE.CPP
/c /ZI /JMC /nologo /W3 /WX- /diagnostics:column /sdl /Od /Oy- /D _MBCS /Gm- /EHsc /RTC1 /MDd /GS /fp:precise /permissive- /Zc:wchar_t /Zc:forScope /Zc:inline /Fo"DEBUG\\" /Fd"DEBUG\VC142.PDB" /Gd /TP /analyze- /FC C:\USERS\RO_AD\DESKTOP\EXEMPLEMOSTENIRE\SOURCE.CPP
