^E:\APLICATII FACULTATE\ANUL I\SEMESTRUL II\PROGRAMARE ORIENTATA PE OBIECTE\LABORATOR 2\LABORATOR 2\PB2.CPP
E:\APLICATII FACULTATE\ANUL I\SEMESTRUL II\PROGRAMARE ORIENTATA PE OBIECTE\LABORATOR 2\LABORATOR 2\DEBUG\VC141.PDB
E:\APLICATII FACULTATE\ANUL I\SEMESTRUL II\PROGRAMARE ORIENTATA PE OBIECTE\LABORATOR 2\LABORATOR 2\DEBUG\VC141.IDB
E:\APLICATII FACULTATE\ANUL I\SEMESTRUL II\PROGRAMARE ORIENTATA PE OBIECTE\LABORATOR 2\LABORATOR 2\DEBUG\PB2.OBJ
