^C:\USERS\RO_AD\DESKTOP\POO\LABORATO2_POO\LABORATO2_POO\LAB2.CPP
C:\USERS\RO_AD\DESKTOP\POO\LABORATO2_POO\LABORATO2_POO\DEBUG\VC141.PDB
C:\USERS\RO_AD\DESKTOP\POO\LABORATO2_POO\LABORATO2_POO\DEBUG\VC141.IDB
C:\USERS\RO_AD\DESKTOP\POO\LABORATO2_POO\LABORATO2_POO\DEBUG\LAB2.OBJ
